('/home/rzimmerdev/linkedin-query-scraper/build/main/main',
 True,
 False,
 True,
 None,
 None,
 False,
 False,
 None,
 True,
 'main.pkg',
 [('PYZ-00.pyz',
   '/home/rzimmerdev/linkedin-query-scraper/build/main/PYZ-00.pyz',
   'PYZ'),
  ('struct',
   '/home/rzimmerdev/linkedin-query-scraper/venv/lib/python3.8/struct.pyo',
   'PYMODULE'),
  ('pyimod01_os_path',
   '/home/rzimmerdev/linkedin-query-scraper/venv/lib/python3.8/site-packages/PyInstaller/loader/pyimod01_os_path.pyc',
   'PYMODULE'),
  ('pyimod02_archive',
   '/home/rzimmerdev/linkedin-query-scraper/venv/lib/python3.8/site-packages/PyInstaller/loader/pyimod02_archive.pyc',
   'PYMODULE'),
  ('pyimod03_importers',
   '/home/rzimmerdev/linkedin-query-scraper/venv/lib/python3.8/site-packages/PyInstaller/loader/pyimod03_importers.pyc',
   'PYMODULE'),
  ('pyiboot01_bootstrap',
   '/home/rzimmerdev/linkedin-query-scraper/venv/lib/python3.8/site-packages/PyInstaller/loader/pyiboot01_bootstrap.py',
   'PYSOURCE'),
  ('pyi_rth_multiprocessing',
   '/home/rzimmerdev/linkedin-query-scraper/venv/lib/python3.8/site-packages/PyInstaller/hooks/rthooks/pyi_rth_multiprocessing.py',
   'PYSOURCE'),
  ('main', '/home/rzimmerdev/linkedin-query-scraper/main.py', 'PYSOURCE')],
 [],
 False,
 False,
 1610933154,
 [('run',
   '/home/rzimmerdev/linkedin-query-scraper/venv/lib/python3.8/site-packages/PyInstaller/bootloader/Linux-64bit/run',
   'EXECUTABLE')])
